\relax 
\citation{Terras:1999}
\citation{Dorst:2002}
\citation{Chirikjian:2002}
\@writefile{toc}{\contentsline {section}{\numberline {1}Introduction}{1}{}\protected@file@percent }
\@writefile{toc}{\contentsline {subsection}{\numberline {1.1}First subsection of intro}{1}{}\protected@file@percent }
\@writefile{toc}{\contentsline {section}{\numberline {2}Blockchain}{1}{}\protected@file@percent }
\@writefile{toc}{\contentsline {subsection}{\numberline {2.1}Overview}{1}{}\protected@file@percent }
\@writefile{toc}{\contentsline {subsection}{\numberline {2.2}Details}{1}{}\protected@file@percent }
\@writefile{toc}{\contentsline {paragraph}{Smart contract types}{1}{}\protected@file@percent }
\@writefile{toc}{\contentsline {section}{\numberline {3}Conclusion}{1}{}\protected@file@percent }
\bibstyle{annotate}
\bibdata{wjd}
\bibcite{Chirikjian:2002}{CK02}
\bibcite{Dorst:2002}{DM02}
\bibcite{Terras:1999}{Ter99}
\gdef \@abspage@last{3}
