\relax 
\providecommand\hyper@newdestlabel[2]{}
\providecommand\HyperFirstAtBeginDocument{\AtBeginDocument}
\HyperFirstAtBeginDocument{\ifx\hyper@anchor\@undefined
\global\let\oldcontentsline\contentsline
\gdef\contentsline#1#2#3#4{\oldcontentsline{#1}{#2}{#3}}
\global\let\oldnewlabel\newlabel
\gdef\newlabel#1#2{\newlabelxx{#1}#2}
\gdef\newlabelxx#1#2#3#4#5#6{\oldnewlabel{#1}{{#2}{#3}}}
\AtEndDocument{\ifx\hyper@anchor\@undefined
\let\contentsline\oldcontentsline
\let\newlabel\oldnewlabel
\fi}
\fi}
\global\let\hyper@last\relax 
\gdef\HyperFirstAtBeginDocument#1{#1}
\providecommand\HyField@AuxAddToFields[1]{}
\providecommand\HyField@AuxAddToCoFields[2]{}
\@writefile{toc}{\contentsline {section}{\tocsection {}{1}{Introduction}}{1}{section.1}\protected@file@percent }
\@writefile{toc}{\contentsline {section}{\tocsection {}{2}{Basic Definitions}}{1}{section.2}\protected@file@percent }
\@writefile{toc}{\contentsline {section}{\tocsection {}{3}{Initial and Terminal Objects}}{2}{section.3}\protected@file@percent }
\@writefile{toc}{\contentsline {section}{\tocsection {}{4}{Product, Coproduct, Exponential}}{2}{section.4}\protected@file@percent }
\@writefile{toc}{\contentsline {section}{\tocsection {}{5}{Functor and Natural Transformation}}{5}{section.5}\protected@file@percent }
\newlabel{tocindent-1}{0pt}
\newlabel{tocindent0}{0pt}
\newlabel{tocindent1}{17.77782pt}
\newlabel{tocindent2}{0pt}
\newlabel{tocindent3}{0pt}
\@writefile{toc}{\contentsline {section}{\tocsection {}{6}{Yoneda's Lemma}}{6}{section.6}\protected@file@percent }
\gdef \@abspage@last{6}
