\relax 
\newlabel{tocindent-1}{0pt}
\newlabel{tocindent0}{0pt}
\newlabel{tocindent1}{0pt}
\newlabel{tocindent2}{0pt}
\newlabel{tocindent3}{0pt}
\@writefile{lof}{\contentsline {figure}{\numberline {1}{\ignorespaces Dotted lines delineate the congruence classes of $\beta ^\star $ (left) and $\ensuremath  {\setbox \z@ \hbox {\frozen@everymath \@emptytoks \mathsurround \z@ $\textstyle \beta $}\mathaccent "0365{\beta }}$ (right); solid lines surround the sets $B_i$.}}{1}}
\@writefile{lof}{\contentsline {figure}{\numberline {2}{\ignorespaces Solid lines delineate the congruence classes of $\beta ^\star $ (left) and $\ensuremath  {\setbox \z@ \hbox {\frozen@everymath \@emptytoks \mathsurround \z@ $\textstyle \beta $}\mathaccent "0365{\beta }}$ (right); dotted lines surround the sets $B_i$.}}{1}}
